^E:\_BACKUPS\BACKUP_CURRENT\DOWNLOADS\HL2_SRC\GCSDK\GCSYSTEMMSGS.PROTO
if not exist ..\..\game\client\generated_proto_tf mkdir ..\..\game\client\generated_proto_tf..\..\thirdparty\protobuf-2.6.1\bin\win32\2013\staticcrt\release\protoc.exe --proto_path=..\..\thirdparty\protobuf-2.6.1\src --proto_path=E:\_Backups\backup_current\Downloads\hl2_src\gcsdk\ --proto_path=..\..\gcsdk --proto_path=..\..\game\shared  --cpp_out=..\..\game\client\generated_proto_tf E:\_Backups\backup_current\Downloads\hl2_src\gcsdk\gcsystemmsgs.proto
^E:\_BACKUPS\BACKUP_CURRENT\DOWNLOADS\HL2_SRC\GAME\SHARED\BASE_GCMESSAGES.PROTO
if not exist ..\..\game\client\generated_proto_tf mkdir ..\..\game\client\generated_proto_tf..\..\thirdparty\protobuf-2.6.1\bin\win32\2013\staticcrt\release\protoc.exe --proto_path=..\..\thirdparty\protobuf-2.6.1\src --proto_path=E:\_Backups\backup_current\Downloads\hl2_src\game\shared\ --proto_path=..\..\gcsdk --proto_path=..\..\game\shared  --cpp_out=..\..\game\client\generated_proto_tf E:\_Backups\backup_current\Downloads\hl2_src\game\shared\base_gcmessages.proto
^E:\_BACKUPS\BACKUP_CURRENT\DOWNLOADS\HL2_SRC\GAME\SHARED\ECON\ECON_GCMESSAGES.PROTO
if not exist ..\..\game\client\generated_proto_tf mkdir ..\..\game\client\generated_proto_tf..\..\thirdparty\protobuf-2.6.1\bin\win32\2013\staticcrt\release\protoc.exe --proto_path=..\..\thirdparty\protobuf-2.6.1\src --proto_path=E:\_Backups\backup_current\Downloads\hl2_src\game\shared\econ\ --proto_path=..\..\gcsdk --proto_path=..\..\game\shared  --cpp_out=..\..\game\client\generated_proto_tf E:\_Backups\backup_current\Downloads\hl2_src\game\shared\econ\econ_gcmessages.proto
^E:\_BACKUPS\BACKUP_CURRENT\DOWNLOADS\HL2_SRC\GCSDK\STEAMMESSAGES.PROTO
if not exist ..\..\game\client\generated_proto_tf mkdir ..\..\game\client\generated_proto_tf..\..\thirdparty\protobuf-2.6.1\bin\win32\2013\staticcrt\release\protoc.exe --proto_path=..\..\thirdparty\protobuf-2.6.1\src --proto_path=E:\_Backups\backup_current\Downloads\hl2_src\gcsdk\ --proto_path=..\..\gcsdk --proto_path=..\..\game\shared  --cpp_out=..\..\game\client\generated_proto_tf E:\_Backups\backup_current\Downloads\hl2_src\gcsdk\steammessages.proto
^E:\_BACKUPS\BACKUP_CURRENT\DOWNLOADS\HL2_SRC\GAME\SHARED\TF\TF_GCMESSAGES.PROTO
if not exist ..\..\game\client\generated_proto_tf mkdir ..\..\game\client\generated_proto_tf..\..\thirdparty\protobuf-2.6.1\bin\win32\2013\staticcrt\release\protoc.exe --proto_path=..\..\thirdparty\protobuf-2.6.1\src --proto_path=E:\_Backups\backup_current\Downloads\hl2_src\game\shared\tf\ --proto_path=..\..\gcsdk --proto_path=..\..\game\shared  --cpp_out=..\..\game\client\generated_proto_tf E:\_Backups\backup_current\Downloads\hl2_src\game\shared\tf\tf_gcmessages.proto
^E:\_BACKUPS\BACKUP_CURRENT\DOWNLOADS\HL2_SRC\PUBLIC\TIER0\POINTEROVERRIDE.ASM
"E:\Program Files (x86)\Microsoft Visual Studio 14.0\VC\bin\ml.exe" /safeseh /c /Cp /Zi /Fo".\tf\\pointeroverride.obj" "E:\_Backups\backup_current\Downloads\hl2_src\public\tier0\pointeroverride.asm"
^E:\_BACKUPS\BACKUP_CURRENT\DOWNLOADS\HL2_SRC\GAME\CLIENT\CLIENT_TF.VPC
rem IncrediBuild_AllowOverlapif exist "..\..\devtools\bin\vpc.exe" "..\..\devtools\bin\vpc.exe" -crc2 "client_tf.vcxproj"if ERRORLEVEL 1 exit /b 1echo crc_complete > E:\_Backups\backup_current\Downloads\hl2_src\game\client\client_tf.vpc.sentinel
